{
  "project_info": {
    "project_number": "418340497223",
    "firebase_url": "https://anythingonline-android.firebaseio.com",
    "project_id": "anythingonline-android",
    "storage_bucket": "anythingonline-android.appspot.com"
  },
  "client": [
    {
      "client_info": {
        "mobilesdk_app_id": "1:418340497223:android:90617728bb1a83aa848e62",
        "android_client_info": {
          "package_name": "com.example.myproject"
        }
      },
      "oauth_client": [
        {
          "client_id": "418340497223-gkrq8ecpis385lvdvvsddanm1cv5ranq.apps.googleusercontent.com",
          "client_type": 1,
          "android_info": {
            "package_name": "com.example.myproject",
            "certificate_hash": "618fdb23613879c8aea96a92c03f47580b008fb6"
          }
        },
        {
          "client_id": "418340497223-5haav9dvd38p267e86npp73qjjav9bnu.apps.googleusercontent.com",
          "client_type": 3
        }
      ],
      "api_key": [
        {
          "current_key": "AIzaSyBbS0Ee7Y6KaIphjdyI8OWz3Nj2m3q1isg"
        }
      ],
      "services": {
        "appinvite_service": {
          "other_platform_oauth_client": [
            {
              "client_id": "418340497223-5haav9dvd38p267e86npp73qjjav9bnu.apps.googleusercontent.com",
              "client_type": 3
            }
          ]
        }
      }
    }
  ],
  "configuration_version": "1"
}